INDEX VERSION 1.3+D:\equip-ms\.metadata\.plugins\org.eclipse.wst.jsdt.core\indexes
3737524572.index
1120029904.index
3197501054.index
2227067427.index
1564261129.index
3755570142.index
1939603855.index
1375599381.index
1352706134.index
3812458714.index
1094701386.index
3812458714.index
3156425919.index
